Final Project
…
library(tidygraph)
library(tidytext)
library(tidyverse)
library(tm)
library(wordcloud)
library(readr)
library(topicmodels)
library(ggraph)
library(igraph)
library(networkD3)
get_sentiments("afinn")

# A tibble: 2,477 × 2
   word       value
   <chr>      <dbl>
 1 abandon       -2
 2 abandoned     -2
 3 abandons      -2
 4 abducted      -2
 5 abduction     -2
 6 abductions    -2
 7 abhor         -3
 8 abhorred      -3
 9 abhorrent     -3
10 abhors        -3
# ℹ 2,467 more rows
…
news_lda <- LDA(news_dtm,k = 10,
              control = list(seed = 123))

news_tidy <- tidy(news_lda,matrix = "beta")
# Make a plot of the top words in 
# each topic

news_tidy %>% 
  group_by(topic) %>% # group_by the topic , keep the top 10 words each ordered by beta
  slice_max(order_by = beta,
            n = 10) %>% 
  ungroup() %>% 
  arrange(topic,-beta)

# A tibble: 100 × 3
   topic term          beta
   <int> <chr>        <dbl>
 1     1 2023       0.00523
 2     1 stock      0.00479
 3     1 world      0.00404
 4     1 2024       0.00403
 5     1 time       0.00362
 6     1 gaza       0.00344
 7     1 cup        0.00306
 8     1 apple      0.00302
 9     1 home       0.00279
10     1 management 0.00260
# ℹ 90 more rows
…
Here we will try and look at just 4 topics within our data.

news_lda <- LDA(news_dtm,k = 4,
              control = list(seed = 123))

news_tidy <- tidy(news_lda,matrix = "beta")

news_tidy %>% 
  group_by(topic) %>% # group_by the topic , keep the top 10 words each ordered by beta
  slice_max(order_by = beta,
            n = 10) %>% 
  ungroup() %>% 
  arrange(topic,-beta)

# A tibble: 40 × 3
   topic term          beta
   <int> <chr>        <dbl>
 1     1 2023       0.00542
 2     1 israel     0.00497
 3     1 gaza       0.00409
 4     1 stock      0.00396
 5     1 watch      0.00381
 6     1 world      0.00365
 7     1 cup        0.00288
 8     1 war        0.00283
 9     1 2024       0.00257
10     1 management 0.00240
# ℹ 30 more rows
…
